{
    "axes": [
        {
            "scale": "x",
            "type": "x"	     	
        },
        {
            "scale": "y",
            "type": "y"
        }
    ],
    "data": [
        {
            "name": "table",
	    "values": [
                {
                    "x": "Kidnap",
                    "y": 211
                },
                {
                    "x": "AutoTheft",
                    "y": 105
                },
                {
                    "x": "BlackMail",
                    "y": 205
                },
                {
                    "x": "ItemTheft",
                    "y": 354	
                },
                {
                    "x": "Robbery",
                    "y": 524
                },
                {
                    "x": "Harassment",
                    "y": 321
                },
                {
                    "x": "Prostitute",
                    "y": 102
                },
                {
                    "x": "PriceScam",
                    "y": 230
                },
                {
                    "x": "Burglary",
                    "y": 65
                },
                {
                    "x": "Extortion",
                    "y": 164
                }
                
            ]
        },
        {
            "name": "x_label",
            "values": [
                {
                    "label": "Crime Name"
                }
            ]
        },
        {
            "name": "y_label",
            "values": [
                {
                    "label": "Number of Crime"
                }
            ]
        }
    ],
    "height": 200,
    "marks": [
        {
            "from": {
                "data": "table"		
            },
            "properties": {
                "enter": {
                    "width": {
                        "band": true,
                        "offset": -1,
                        "scale": "x"
                    },
                    "x": {
                        "field": "data.x",
                        "scale": "x"
                    },
                    "y": {
                        "field": "data.y",
                        "scale": "y"
                    },
                    "y2": {
                        "scale": "y",
                        "value": 0
                    }
                },
                "update": {
                    "fill": {
                        "value": "#ADD8E6"
                    }
                }
            },
            "type": "rect"
        },
        {
            "from": {
                "data": "x_label"
            },
            "name": "x_label",
            "properties": {
                "enter": {
                    "align": {
                        "value": "center"
                    },
                    "baseline": {
                        "value": "middle"
                    },
                    "dy": {
                        "value": 35
                    },
                    "fill": {
                        "value": "#CF4D5F"
                    },
                    "font": {
                        "value": "Helvetica Neue"
                    },
                    "fontSize": {
                        "value": 14
                    },
                    "text": {
                        "field": "data.label"
                    },
                    "x": {
                        "value": 180.0
                    },
                    "y": {
                        "value": 200
                    }
                }
            },
            "type": "text"
        },
        {
            "from": {
                "data": "y_label"
            },
            "name": "y_label",
            "properties": {
                "enter": {
                    "align": {
                        "value": "center"
                    },
                    "angle": {
                        "value": -90
                    },
                    "baseline": {
                        "value": "middle"
                    },
                    "dy": {
                        "value": -45
                    },
                    "fill": {
                        "value": "#CF4D5F"
                    },
                    "font": {
                        "value": "Helvetica Neue"
                    },
                    "fontSize": {
                        "value": 14
                    },
                    "text": {
                        "field": "data.label"
                    },
                    "x": {
                        "value": 0
                    },
                    "y": {
                        "value": 100.0
                    }
                }
            },
            "type": "text"
        }
    ],
    "padding": {
        "bottom": 50,
        "left": 60,
        "right": 20,
        "top": 10
    },
    "scales": [
        {
            "domain": {
                "data": "table",
                "field": "data.x"
            },
            "name": "x",
            "range": "width",
            "type": "ordinal"
        },
        {
            "domain": {
                "data": "table",
                "field": "data.y"
            },
            "name": "y",
            "nice": true,
            "range": "height"
        }
    ],
    "viewport": null,
    "width": 500
}